Usage • renvtools
…
[1] "4.4.1"
[1] "3.19"
[1] "1.0.7"
[1] "1.1.4"

The default is to read into a list. Change format to tibble to read as table.

tbl <- read_lock(path, format = "tibble")
tbl

R version: 4.4.1
Bioc version: 3.19
# A tibble: 294 x 14
   Package     Version  Source  Repository Hash  Requirements OS_type RemoteType
   <chr>       <chr>    <chr>   <chr>      <chr> <list>       <chr>   <chr>
 1 BH          1.84.0-0 Reposi~ RSPM       a823~ <NULL>       <NA>    <NA>
 2 BiocManager 1.30.23  Reposi~ RSPM       47e9~ <chr [1]>    <NA>    <NA>
 3 BiocVersion 3.19.1   Biocon~ Bioconduc~ b892~ <chr [1]>    <NA>    <NA>
 4 CFtime      1.4.0    Reposi~ RSPM       630f~ <chr [2]>    <NA>    <NA>
 5 DBI         1.2.3    Reposi~ RSPM       065a~ <chr [2]>    <NA>    <NA>
 6 DiagrammeR  1.0.11   Reposi~ RSPM       584c~ <chr [19]>   <NA>    <NA>
 7 FNN         1.1.4    Reposi~ RSPM       eaab~ <chr [1]>    <NA>    <NA>
 8 KernSmooth  2.23-24  Reposi~ CRAN       9f33~ <chr [2]>    <NA>    <NA>
 9 Lahman      11.0-0   Reposi~ RSPM       5b6f~ <chr [2]>    <NA>    <NA>
10 LearnBayes  2.15.1   Reposi~ RSPM       b2dd~ <NULL>       <NA>    <NA>
# i 284 more rows
# i 6 more variables: RemoteHost <chr>, RemoteRepo <chr>, RemoteUsername <chr>,
#   RemotePkgRef <chr>, RemoteRef <chr>, RemoteSha <chr>
…
# A tibble: 4 x 5
# Groups:   Source [4]
  Source       `Bioconductor 3.19`  `NA`  CRAN  RSPM
  <chr>                      <int> <int> <int> <int>
1 Bioconductor                   4    NA    NA    NA
2 GitHub                        NA     1    NA    NA
3 Repository                    NA    NA    16   272
4 unknown                       NA     1    NA    NA

# number of dependency packages for each package
tbl |>
  group_by(Package) |>
  summarize(N = length(unlist(Requirements)))

# A tibble: 294 x 2
   Package         N
   <chr>       <int>
 1 BH              0
 2 BiocManager     1
 3 BiocVersion     1
 4 CFtime          2
 5 DBI             2
 6 DiagrammeR     19
 7 FNN             1
 8 KernSmooth      2
 9 Lahman          2
10 LearnBayes      0
# i 284 more rows

Read several lock files and you get a list of tibbles or a list of lists.

paths <- list.files(file.path(system.file("extdata", package = "renvtools")), full.names = TRUE)
# read as list
# read_lock(paths[1:3], format = "list")
# read as tibble
read_lock(paths[1:3], format = "tibble")

$lf_1
R version: 3.5.3
# A tibble: 197 x 10
   Package  Version Source Hash  RemoteType RemoteHost RemoteRepo RemoteUsername
   <chr>    <chr>   <chr>  <chr> <chr>      <chr>      <chr>      <chr>
 1 ape      5.3     CRAN   c94d~ <NA>       <NA>       <NA>       <NA>
 2 askpass  1.1     CRAN   ff8e~ <NA>       <NA>       <NA>       <NA>
 3 assertt~ 0.2.1   CRAN   263e~ <NA>       <NA>       <NA>       <NA>
 4 backpor~ 1.1.3   CRAN   d5d2~ <NA>       <NA>       <NA>       <NA>
 5 base64e~ 0.1-3   CRAN   eec0~ <NA>       <NA>       <NA>       <NA>
 6 BH       1.69.0~ CRAN   88e6~ <NA>       <NA>       <NA>       <NA>
 7 bibtex   0.4.2   CRAN   be04~ <NA>       <NA>       <NA>       <NA>
 8 bitops   1.0-6   CRAN   f72d~ <NA>       <NA>       <NA>       <NA>
 9 broom    0.5.1   CRAN   3bca~ <NA>       <NA>       <NA>       <NA>
10 callr    3.2.0   CRAN   7af0~ <NA>       <NA>       <NA>       <NA>
# i 187 more rows
# i 2 more variables: RemoteRef <chr>, RemoteSha <chr>

$lf_2
R version: 3.6.1
# A tibble: 168 x 5
   Package      Version  Source     Repository Hash
   <chr>        <chr>    <chr>      <chr>      <chr>
 1 BH           1.72.0-3 Repository CRAN       8f9ce74c6417d61f0782cbae5fd2b7b0
 2 DBI          1.1.0    Repository CRAN       4744be45519d675af66c28478720fce5
 3 DT           0.12     Repository CRAN       0e120603cc57e4f1d741f739aa8147ba
 4 Formula      1.2-3    Repository CRAN       0537b6f1f38ea1fd514089192724bb6e
 5 Hmisc        4.3-1    Repository CRAN       b354bb2e63e1d6947eb05fa3bc355b2f
 6 MASS         7.3-51.5 Repository CRAN       9efe80472b21189ebab1b74169808c26
 7 Matrix       1.2-18   Repository CRAN       08588806cba69f04797dab50627428ed
 8 MatrixModels 0.4-1    Repository CRAN       d57ac35220b39c591388ab3a080f9cbe
 9 R6           2.4.1    Repository CRAN       292b54f8f4b94669b08f94e5acce6be2
10 RColorBrewer 1.1-2    Repository CRAN       e031418365a7f7a766181ab5a41a5716
# i 158 more rows

$lf_3
R version: 4.0.5
# A tibble: 424 x 6
   Package       Version  Source     Repository Hash                Requirements
   <chr>         <chr>    <chr>      <chr>      <chr>               <list>
 1 BH            1.72.0-3 Repository CRAN       8f9ce74c6417d61f07~ <NULL>
 2 BayesianTools 0.1.8    Repository CRAN       6f37f391a9029a6490~ <chr [14]>
 3 Brobdingnag   1.2-6    Repository CRAN       365629a3ac7243df8e~ <NULL>
 4 DBI           1.1.0    Repository CRAN       4744be45519d675af6~ <NULL>
 5 DHARMa        0.4.6    Repository CRAN       ffebef4763cbacec39~ <chr [6]>
 6 DT            0.15     Repository CRAN       85738c69035e67ec4b~ <chr [6]>
 7 Epi           2.46     Repository CRAN       8c034ee3794ad710b8~ <chr [12]>
 8 FNN           1.1.3    Repository CRAN       b56998fff55e4a4b48~ <NULL>
 9 Formula       1.2-3    Repository CRAN       0537b6f1f38ea1fd51~ <NULL>
10 GGally        2.0.0    Repository CRAN       f767c7f049252543d1~ <chr [9]>
# i 414 more rows
…
4 Comparing lockfiles

Compare two or more lockfiles in a pairwise manner.

paths <- list.files(system.file("extdata", package = "renvtools"), full.names = TRUE)
l <- read_lock(paths, format = "list")
compare_lock(l)

# A tibble: 28 x 19
   a     b     rver_a rver_b renvver_a renvver_b jaccard pkgs_len_a pkgs_len_b
   <chr> <chr> <chr>  <chr>  <chr>     <chr>       <dbl>      <int>      <int>
 1 lf_1  lf_2  3.5.3  3.6.1  0.9.2     0.11.0     0.448         197        168
 2 lf_1  lf_3  3.5.3  4.0.5  0.9.2     0.16.0     0.316         197        424
 3 lf_1  lf_4  3.5.3  4.1.2  0.9.2     1.0.3      0.292         197        391
 4 lf_1  lf_5  3.5.3  4.2.2  0.9.2     1.0.4      0.373         197        256
 5 lf_1  lf_6  3.5.3  4.3.2  0.9.2     1.0.3      0.257         197        668
 6 lf_1  lf_7  3.5.3  4.4.1  0.9.2     1.0.7      0.292         197        294
 7 lf_1  lf_8  3.5.3  <NA>   0.9.2     <NA>       0.0340        197         16
 8 lf_2  lf_3  3.6.1  4.0.5  0.11.0    0.16.0     0.349         168        424
 9 lf_2  lf_4  3.6.1  4.1.2  0.11.0    1.0.3      0.354         168        391
10 lf_2  lf_5  3.6.1  4.2.2  0.11.0    1.0.4      0.457         168        256
# i 18 more rows
# i 10 more variables: pkgs_len_unique_a <int>, pkgs_len_unique_b <int>,
#   pkgs_len_common <int>, pkgs_len_total <int>, pkgs_a <list>, pkgs_b <list>,
#   pkgs_unique_a <list>, pkgs_unique_b <list>, pkgs_common <list>,
#   pkgs_total <list>
…
class(lst)

[1] "rt_list" "list"   

The tibbles are also a class of it’s own called rt_tibble.

path <- file.path(system.file("extdata", package = "renvtools"), "renv-r4.4.1.lock")
tbl <- read_lock(path, format = "tibble")
tbl

R version: 4.4.1
Bioc version: 3.19
# A tibble: 294 x 14
   Package     Version  Source  Repository Hash  Requirements OS_type RemoteType
   <chr>       <chr>    <chr>   <chr>      <chr> <list>       <chr>   <chr>
 1 BH          1.84.0-0 Reposi~ RSPM       a823~ <NULL>       <NA>    <NA>
 2 BiocManager 1.30.23  Reposi~ RSPM       47e9~ <chr [1]>    <NA>    <NA>
 3 BiocVersion 3.19.1   Biocon~ Bioconduc~ b892~ <chr [1]>    <NA>    <NA>
 4 CFtime      1.4.0    Reposi~ RSPM       630f~ <chr [2]>    <NA>    <NA>
 5 DBI         1.2.3    Reposi~ RSPM       065a~ <chr [2]>    <NA>    <NA>
 6 DiagrammeR  1.0.11   Reposi~ RSPM       584c~ <chr [19]>   <NA>    <NA>
 7 FNN         1.1.4    Reposi~ RSPM       eaab~ <chr [1]>    <NA>    <NA>
 8 KernSmooth  2.23-24  Reposi~ CRAN       9f33~ <chr [2]>    <NA>    <NA>
 9 Lahman      11.0-0   Reposi~ RSPM       5b6f~ <chr [2]>    <NA>    <NA>
10 LearnBayes  2.15.1   Reposi~ RSPM       b2dd~ <NULL>       <NA>    <NA>
# i 284 more rows
# i 6 more variables: RemoteHost <chr>, RemoteRepo <chr>, RemoteUsername <chr>,
#   RemotePkgRef <chr>, RemoteRef <chr>, RemoteSha <chr>
…
